Yield Stability
…
yield16 <- read_csv("../Data/Deer Run1 2016 Yield.csv")

Rows: 73574 Columns: 35
── Column specification ────────────────────────────────────────────────────────
Delimiter: ","
chr (15): Time, WindDire, SkyCondi, SoilMois, Record01, LoadName, LoadDest, ...
dbl (19): Long, Lat, Heading, Distance, Elevatio, Width, Relative, AirTempe,...
lgl  (1): DelStatus

ℹ Use `spec()` to retrieve the full column specification for this data.
ℹ Specify the column types or set `show_col_types = FALSE` to quiet this message.

yield16

# A tibble: 73,574 × 35
    Long   Lat Heading Distance Elevatio Time  Width DelStatus Relative AirTempe
   <dbl> <dbl>   <dbl>    <dbl>    <dbl> <chr> <dbl> <lgl>        <dbl>    <dbl>
 1 -84.6  31.5    166.    0.357     206. 8/6/…    24 FALSE            0        0
 2 -84.6  31.5    346.    4.03      206. 8/6/…    24 FALSE            0        0
 3 -84.6  31.5    346.    1.96      206. 8/6/…    24 FALSE            0        0
 4 -84.6  31.5    345.    2.13      206. 8/6/…    24 FALSE            0        0
 5 -84.6  31.5    164.    6.16      206. 8/6/…    24 FALSE            0        0
 6 -84.6  31.5    162.    3.44      206. 8/6/…    24 FALSE            0        0
 7 -84.6  31.5    162.    3.44      206. 8/6/…    24 FALSE            0        0
 8 -84.6  31.5    162.    3.51      206. 8/6/…    24 FALSE            0        0
 9 -84.6  31.5    162.    3.54      206. 8/6/…    24 FALSE            0        0
10 -84.6  31.5    163.    3.64      206. 8/6/…    24 FALSE            0        0
# ℹ 73,564 more rows
# ℹ 25 more variables: WindSpee <dbl>, SoilTemp <dbl>, WindDire <chr>,
#   SkyCondi <chr>, SoilMois <chr>, FuelRate <dbl>, Product0 <dbl>,
#   Record01 <chr>, HarvestM <dbl>, YieldMas <dbl>, YieldWet <dbl>,
#   DryYield <dbl>, LoadNumber <dbl>, LoadName <chr>, LoadDest <chr>,
#   Operator <chr>, Machine <chr>, Implement1 <chr>, Client <chr>, Farm <chr>,
#   Field <chr>, Task <chr>, OperType <chr>, ProcYear <dbl>, speed_mph <dbl>
…
yield16_w

Simple feature collection with 73574 features and 4 fields
Geometry type: POINT
Dimension:     XY
Bounding box:  xmin: 731562.6 ymin: 3483311 xmax: 732729.7 ymax: 3484504
Projected CRS: NAD83(2011) / UTM zone 16N
# A tibble: 73,574 × 5
   speed_mph yield_lbac yield_kgha speed_kmh           geometry
 *     <dbl>      <dbl>      <dbl>     <dbl>        <POINT [m]>
 1      0.24      362.       406.      0.255 (731757.5 3484346)
 2      2.75       73.7       82.6     2.92  (731757.3 3484347)
 3      1.34      210.       236.      1.42  (731757.4 3484346)
 4      1.45      187.       210.      1.54  (731757.6 3484346)
 5      4.2        73.1       81.9     4.46  (731758.2 3484344)
 6      2.35      135.       151.      2.49  (731758.6 3484343)
 7      2.35      163.       183.      2.49    (731759 3484342)
 8      2.39      146.       164.      2.54  (731759.3 3484341)
 9      2.41      149.       167.      2.56  (731759.7 3484340)
10      2.48      152.       170.      2.63    (731760 3484339)
# ℹ 73,564 more rows
…
